<svg width="35" height="35" viewBox="0 0 35 35" fill="none" xmlns="http://www.w3.org/2000/svg">
<path d="M30.625 13.125H21.875V4.375C21.875 1.95891 19.9161 0 17.5 0C15.0839 0 13.125 1.95891 13.125 4.375V13.125H4.375C1.95891 13.125 0 15.0839 0 17.5C0 19.9161 1.95891 21.875 4.375 21.875H13.125V30.625C13.125 33.0411 15.0839 35 17.5 35C19.9161 35 21.875 33.0411 21.875 30.625V21.875H30.625C33.0411 21.875 35 19.9161 35 17.5C35 15.0839 33.0411 13.125 30.625 13.125Z" fill="#fff"/>
</svg>
