<svg width="30" height="30" viewBox="0 0 30 30" fill="none" xmlns="http://www.w3.org/2000/svg">
<path d="M1.79993 16.8002H28.1998C29.1941 16.8002 30 15.9943 30 14.9998C30 14.0055 29.1944 13.1996 28.1998 13.1996H1.79993C0.805878 13.1998 0 14.0057 0 15C0 15.9943 0.805878 16.8002 1.79993 16.8002Z" fill="#fff"/>
</svg>
